[
   {
      "points":[
         {
            "x":0,
            "y":0
         },
         {
            "x":0.5,
            "y":0
         },
         {
            "x":0.5,
            "y":0.25
         },
         {
            "x":0.25,
            "y":0.5
         },
         {
            "x":0,
            "y":0.5
         }
      ]
   },
   {
      "points":[
         {
            "x":0.5,
            "y":0
         },
         {
            "x":1,
            "y":0
         },
         {
            "x":1,
            "y":0.5
         },
         {
            "x":0.75,
            "y":0.5
         },
         {
            "x":0.5,
            "y":0.25
         }
      ]
   },
   {
      "points":[
         {
            "x":0,
            "y":0.5
         },
         {
            "x":0.25,
            "y":0.5
         },
         {
            "x":0.5,
            "y":0.75
         },
         {
            "x":0.5,
            "y":1
         },
         {
            "x":0,
            "y":1
         }
      ]
   },
   {
      "points":[
         {
            "x":0.75,
            "y":0.5
         },
         {
            "x":1,
            "y":0.5
         },
         {
            "x":1,
            "y":1
         },
         {
            "x":0.5,
            "y":1
         },
         {
            "x":0.5,
            "y":0.75
         }
      ]
   },
   {
      "points":[
         {
            "x":0.5,
            "y":0.26
         },
         {
            "x":0.74,
            "y":0.5
         },
         {
            "x":0.5,
            "y":0.74
         },
         {
            "x":0.26,
            "y":0.5
         }
      ]
   }
]